<?xml version="1.0" encoding="utf-8"?>
<svg
	xmlns="http://www.w3.org/2000/svg"
	viewBox="0 0 1018 613"
	width="1018"
	height="613"
>
	<style>
		text{
			font-family: Sans-Serif;
			dominant-baseline: middle;
		}

		text.h2{
			font-size: 24px;
			font-weight: bold;
		}
		text.h3{
			font-size: 18px;
			font-weight: bold;
		}
		text.h2, text.h3{
			text-anchor: middle;
		}

		.code{
			font-size: 16px;
			font-family: Monospace;
		}

		.stroke{
			stroke: gray;
			stroke-width: 2;
		}

		.dashed{
			stroke-dasharray: 5;
		}

		.arrow{
			fill: none;
			stroke: gray;
			stroke-width: 2;

			marker-start: url(#ArrowStart);
			marker-end: url(#ArrowEnd);
		}
	</style>

	<defs>
		<marker
			id="ArrowStart"
			style="overflow: visible"
			orient="auto"
		>
			<circle
				cx="-2"
				fill="none"
				stroke="gray"
				r="2"
			/>
		</marker>
		<marker
			id="ArrowEnd"
			style="overflow: visible;"
			stroke-linejoin="round"
			orient="auto"
		>
			<path
				fill="none"
				stroke="gray"
				stroke-width="1"
				d="
					M 0 0
					v   2
					l  5 -2
					l -5 -2
					v   2
					z
				"
			/>
		</marker>
	</defs>

	<rect
		x="32"
		y="32"
		width="660"
		height="550"
		fill="#ffff7f"
		rx="15"
		class="stroke"
	/>
	<text
		x="361"
		y="68"
		font-weight="bold"
		font-size="32"
		text-anchor="middle"
	>MariaDB Server</text>

	<rect
		x="50"
		y="111"
		width="270"
		height="180"
		rx="15"
		fill="#bbf"
	/>
	<text x="183" y="141" class="h2">Static Plugins</text>

	<rect
		x="66"
		y="180"
		width="238"
		height="94"
		rx="15"
		fill="#88f"
	/>
	<text x="82" y="204" class="code">FOO_compress_buffer()</text>
	<text x="82" y="247" class="code">FOO_decompress_buffer()</text>

	<rect
		x="340"
		y="111"
		width="330"
		height="450"
		rx="15"
		fill="#fbb"
	/>
	<text x="507" y="141" class="h2">Server Code</text>

	<rect
		x="360"
		y="180"
		width="290"
		height="175"
		rx="15"
		fill="#f88"
	/>
	<text x="507" y="206" class="h3 code">compression_service_foo</text>

	<rect
		x="380"
		y="241"
		width="250"
		height="94"
		rx="15"
		fill="#f66"
	/>
	<text x="397" y="265" class="code">FOO_compress_buffer_ptr</text>
	<text x="397" y="309" class="code">FOO_decompress_buffer_ptr</text>

	<rect
		x="356"
		y="375"
		width="300"
		height="172"
		rx="15"
		fill="#f88"
	/>
	<text x="507" y="402" class="h3 code">sql/compression/foo.cc</text>

	<rect
		x="372"
		y="437"
		width="270"
		height="94"
		rx="15"
		class="fill"
		fill="#f66"
	/>
	<text x="388" y="461" class="code">DUMMY_FOO_compress_buffer</text>
	<text x="388" y="505" class="code">DUMMY_FOO_decompress_buffer</text>

	<rect
		x="716"
		y="111"
		width="270"
		height="182"
		rx="15"
		fill="#bbf"
		class="stroke dashed"
	/>
	<text x="851" y="141" class="h2">Dynamic Plugins</text>

	<rect
		x="733"
		y="180"
		width="234"
		height="94"
		rx="15"
		fill="#88f"
	/>
	<text x="750" y="204" class="code">FOO_compress_buffer()</text>
	<text x="750" y="247" class="code">FOO_decompress_buffer()</text>

	<rect
		x="716"
		y="319"
		width="270"
		height="182"
		rx="15"
		fill="#bfb"
		class="stroke"
	/>
	<text x="851" y="350" class="h2 code">libfoo.so</text>

	<rect
		x="743"
		y="389"
		width="216"
		height="94"
		rx="15"
		fill="#8f8"
	/>
	<text x="759" y="414" class="code">FOO_compress_buffer</text>
	<text x="759" y="457" class="code">FOO_decompress_buffer</text>

	<path
		class="arrow"
		d="
			M 729 204
			c -30 0 -57 54 -88 54
		"
	/>
	<path
		class="arrow"
		d="
			M 729 247
			c -30 0 -57 55 -88 55
		"
	/>

	<path
		class="arrow"
		d="
			M 308 204
			c 21 0 40 54 61 54
		"
	/>
	<path
		class="arrow"
		d="
			M 308 247
			c 21 0 40 55 61 55
		"
	/>

	<path
		class="arrow dashed"
		d="
			M 634 272
			c 34 0 64 142 98 142
		"
	/>
	<path
		class="arrow dashed"
		d="
			M 634 316
			c 34 0 64 141 98 141
		"
	/>

	<path
		class="arrow dashed"
		d="
			M 376 272
			c -50 20 -50 179 -13 189
		"
	/>
	<path
		class="arrow dashed"
		d="
			M 376 316
			c -70 20 -70 179 -13 189
		"
	/>
</svg>